Food Desert Analysis
…
food_info_clean

# A tibble: 8,484 × 7
   census_tract county       poverty_rate median_family_income food_desert
   <chr>        <chr>               <dbl>                <dbl> <chr>      
 1 08001007801  Adams County         30.7                40921 Not Desert 
 2 08001007801  Adams County         30.7                40921 Not Desert 
 3 08001007801  Adams County         30.7                40921 Not Desert 
 4 08001007801  Adams County         30.7                40921 Not Desert 
 5 08001007801  Adams County         30.7                40921 Not Desert 
 6 08001007801  Adams County         30.7                40921 Not Desert 
 7 08001007801  Adams County         30.7                40921 Not Desert 
 8 08001007900  Adams County         17.9                47163 Not Desert 
 9 08001007900  Adams County         17.9                47163 Not Desert 
10 08001007900  Adams County         17.9                47163 Not Desert 
# ℹ 8,474 more rows
# ℹ 2 more variables: race_percent <chr>, percent <dbl>
…
